Exploration of Metabolite Levels Across the Brains of Rats Treated with Varriable Doses of DMSO
…
This is a description of the study, and how rats got injected with solvents. its a whole thing

Data Tidying

Description of the Data

The data was came as an excel file that was not #Tidy at all.

-data (treatment) was stored in column names, not as a vector -this occured across 3 parts of the data: -the mean intensity -the p-value -the fold change -vector names are full of "."s and spaces, which will cause problems with ggplot

How we Tidyd the data

Untidy_DMSO_Data

## # A tibble: 1,472 x 13
##    Region    ID ChemicalName mean.Control.PBS mean.0.2.mg.kg.~
##    <chr>  <dbl> <chr>                   <dbl>            <dbl>
##  1 Hippo~    25 alpha-Guani~         5868675.         7358415.
##  2 Cortex    25 alpha-Guani~         4531331.         5744252.
##  3 Cereb~    25 alpha-Guani~         4440230          4729836.
##  4 Basal~    25 alpha-Guani~         6141963.         6627735 
##  5 Hippo~    26 alpha-Guani~        23902026.        17344093.
##  6 Cortex    26 alpha-Guani~        29890478.        21407947.
##  7 Cereb~    26 alpha-Guani~        26818103.        16010817.
##  8 Basal~    26 alpha-Guani~        26768719.        26497697.
##  9 Hippo~    27 beta-D-Gluc~        13132860.        12968494.
## 10 Cortex    27 beta-D-Gluc~        11608789.        12083229 
## # ... with 1,462 more rows, and 8 more variables:
## #   mean.2.0.mg.kg.DMSO <dbl>, mean.4.0.mg.kg.DMSO <dbl>,
## #   FC_lowvsCTRL <dbl>, FC_medvsCTRL <dbl>, FC_highvsCTRL <dbl>,
## #   post.hoc.Control.PBS.0.2.mg.kg.DMSO <dbl>,
## #   post.hoc.Control.PBS.2.0.mg.kg.DMSO <dbl>,
## #   post.hoc.Control.PBS.4.0.mg.kg.DMSO <dbl>
…
 #deletes part of unwanted text in data
 separate(Treatment, 
            into= c("Delete", "Treatment"), 
            sep = "_val_") %>%   
 # selects 3 "key" columns, treatment, and intensity
 select(Region, ID, Chemical_Name, Treatment, p_value_vs_Control)

How we #Tidyd the data

So Each Table looks something like this, but we need to join all of the tables by the key : Chemical Name, ID, and Region

p_value_DMSO_Data

## # A tibble: 4,416 x 5
##    Region          ID Chemical_Name             Treatment p_value_vs_Contr~
##    <chr>        <dbl> <chr>                     <chr>                 <dbl>
##  1 Hippocampus     25 alpha-Guanidinoglutaric-~ 02                    0.608
##  2 Cortex          25 alpha-Guanidinoglutaric-~ 02                    0.810
##  3 Cerebellum      25 alpha-Guanidinoglutaric-~ 02                    1.000
##  4 Basal Gangl~    25 alpha-Guanidinoglutaric-~ 02                    0.977
##  5 Hippocampus     26 alpha-Guanidinoglutaric-~ 02                    0.836
##  6 Cortex          26 alpha-Guanidinoglutaric-~ 02                    0.628
##  7 Cerebellum      26 alpha-Guanidinoglutaric-~ 02                    0.413
##  8 Basal Gangl~    26 alpha-Guanidinoglutaric-~ 02                    0.997
##  9 Hippocampus     27 beta-D-Glucose            02                    0.982
## 10 Cortex          27 beta-D-Glucose            02                    0.995
## # ... with 4,406 more rows
…
Subsets of the Data

Chems_in_OneCMetabolism <- 
  Tidy_DMSO_Data %>% 
  filter(Chemical_Name== "Cystathionine" |
        Chemical_Name== "DL-Cystathionine" |
        Chemical_Name== "S-Adenosyl-homocysteine" |
        Chemical_Name== "S-Adenosyl-methionine" |
        Chemical_Name== "S-Lactoylglutathione" |
        Chemical_Name== "Glutathione-oxidized" |
        Chemical_Name== "Glutathione-reduceD-")
Chems_in_OneCMetabolism

## # A tibble: 128 x 7
##    Region    ID Chemical_Name Treatment Mean_Intensity Fold_Change_vs_~
##    <chr>  <dbl> <chr>         <chr>              <dbl>            <dbl>
##  1 Hippo~   140 Cystathionine Control         7624556.               NA
##  2 Cortex   140 Cystathionine Control         6559004.               NA
##  3 Cereb~   140 Cystathionine Control        51973481.               NA
##  4 Basal~   140 Cystathionine Control         7466175                NA
##  5 Hippo~   156 DL-Cystathio~ Control         1089096.               NA
##  6 Cortex   156 DL-Cystathio~ Control          844637.               NA
##  7 Cereb~   156 DL-Cystathio~ Control         2966365.               NA
##  8 Basal~   156 DL-Cystathio~ Control          952557.               NA
##  9 Hippo~   182 Glutathione-~ Control           43738                NA
## 10 Cortex   182 Glutathione-~ Control           65481                NA
## # ... with 118 more rows, and 1 more variable: p_value_vs_Control <dbl>
…
        Chemical_Name== "2-O-Methylcytidine" |
        Chemical_Name== "3-O-Methylcytidine" |
        Chemical_Name== "Uracil" |
        Chemical_Name== "Uridine" |
        Chemical_Name== "1-Methyladenosine" |
        Chemical_Name== "Xanthine" |
        Chemical_Name== "Xanthosine-5-monophosphate" |
        Chemical_Name== "Inosine" |
        Chemical_Name== "Inosine-5-monophosphate" |
        Chemical_Name== "5-Methylthioadenosine" |
        Chemical_Name== "5-S-Methyl-5-thioadenosine" |
        Chemical_Name== "Uridine-5-diphosphoacetylglucosamine" )
Chems_in_Nucleotides

## # A tibble: 512 x 7
##    Region    ID Chemical_Name Treatment Mean_Intensity Fold_Change_vs_~
##    <chr>  <dbl> <chr>         <chr>              <dbl>            <dbl>
##  1 Hippo~    98 Adenine       Control           62611                NA
##  2 Cortex    98 Adenine       Control           81756.               NA
##  3 Cereb~    98 Adenine       Control           65762.               NA
##  4 Basal~    98 Adenine       Control           72556                NA
##  5 Hippo~    99 Adenosine     Control        25783745                NA
##  6 Cortex    99 Adenosine     Control        39391868.               NA
##  7 Cereb~    99 Adenosine     Control        32699936.               NA
##  8 Basal~    99 Adenosine     Control        22373027.               NA
##  9 Hippo~   101 Adenosine-3-~ Control          476597.               NA
## 10 Cortex   101 Adenosine-3-~ Control          273114.               NA
## # ... with 502 more rows, and 1 more variable: p_value_vs_Control <dbl>
…
